module gitlab.com/nuangua/testbot

go 1.23.5

require (
	golang.org/x/net v0.34.0
	google.golang.org/grpc v1.69.4
	google.golang.org/protobuf v1.36.3
)

require (
	golang.org/x/sys v0.29.0 // indirect
	golang.org/x/text v0.21.0 // indirect
	google.golang.org/genproto/googleapis/rpc v0.0.0-20241015192408-796eee8c2d53 // indirect
)
